[ { "fall" : "Fell",
    "id" : 1,
    "mass" : 21,
    "name" : "Aachen",
    "nametype" : "Valid",
    "recclass" : "L5",
    "reclat" : 50.774999999999999,
    "reclong" : 6.0833300000000001,
    "year" : 1880
  },
  { "fall" : "Fell",
    "id" : 2,
    "mass" : 720,
    "name" : "Aarhus",
    "nametype" : "Valid",
    "recclass" : "H6",
    "reclat" : 56.183329999999998,
    "reclong" : 10.23333,
    "year" : 1951
  },
  { "fall" : "Fell",
    "id" : 6,
    "mass" : 107000,
    "name" : "Abee",
    "nametype" : "Valid",
    "recclass" : "EH4",
    "reclat" : 54.216670000000001,
    "reclong" : -113.0,
    "year" : 1952
  },
  { "fall" : "Fell",
    "id" : 10,
    "mass" : 1914,
    "name" : "Acapulco",
    "nametype" : "Valid",
    "recclass" : "Acapulcoite",
    "reclat" : 16.883330000000001,
    "reclong" : -99.900000000000006,
    "year" : 1976
  },
  { "fall" : "Fell",
    "id" : 370,
    "mass" : 780,
    "name" : "Achiras",
    "nametype" : "Valid",
    "recclass" : "L6",
    "reclat" : -33.166670000000003,
    "reclong" : -64.950000000000003,
    "year" : 1902
  },
  { "fall" : "Fell",
    "id" : 379,
    "mass" : 4239,
    "name" : "Adhi Kot",
    "nametype" : "Valid",
    "recclass" : "EH4",
    "reclat" : 32.100000000000001,
    "reclong" : 71.799999999999997,
    "year" : 1919
  },
  { "fall" : "Fell",
    "id" : 390,
    "mass" : 910,
    "name" : "Adzhi-Bogdo (stone)",
    "nametype" : "Valid",
    "recclass" : "LL3-6",
    "reclat" : 44.833329999999997,
    "reclong" : 95.166669999999996,
    "year" : 1949
  },
  { "fall" : "Fell",
    "id" : 392,
    "mass" : 30000,
    "name" : "Agen",
    "nametype" : "Valid",
    "recclass" : "H5",
    "reclat" : 44.216670000000001,
    "reclong" : 0.61667000000000005,
    "year" : 1814
  },
  { "fall" : "Fell",
    "id" : 398,
    "mass" : 1620,
    "name" : "Aguada",
    "nametype" : "Valid",
    "recclass" : "L6",
    "reclat" : -31.600000000000001,
    "reclong" : -65.233329999999995,
    "year" : 1930
  },
  { "fall" : "Fell",
    "id" : 417,
    "mass" : 1440,
    "name" : "Aguila Blanca",
    "nametype" : "Valid",
    "recclass" : "L",
    "reclat" : -30.866669999999999,
    "reclong" : -64.549999999999997,
    "year" : 1920
  },
  { "fall" : "Fell",
    "id" : 423,
    "mass" : 1000,
    "name" : "Aioun el Atrouss",
    "nametype" : "Valid",
    "recclass" : "Diogenite-pm",
    "reclat" : 16.398060000000001,
    "reclong" : -9.5702800000000003,
    "year" : 1974
  },
  { "fall" : "Fell",
    "id" : 424,
    "mass" : 24000,
    "name" : "Aïr",
    "nametype" : "Valid",
    "recclass" : "L6",
    "reclat" : 19.08333,
    "reclong" : 8.3833300000000008,
    "year" : 1925
  },
  { "fall" : "Fell",
    "id" : 425,
    "mass" : null,
    "name" : "Aire-sur-la-Lys",
    "nametype" : "Valid",
    "recclass" : "Unknown",
    "reclat" : 50.666670000000003,
    "reclong" : 2.3333300000000001,
    "year" : 1769
  },
  { "fall" : "Fell",
    "id" : 426,
    "mass" : 779,
    "name" : "Akaba",
    "nametype" : "Valid",
    "recclass" : "L6",
    "reclat" : 29.516670000000001,
    "reclong" : 35.049999999999997,
    "year" : 1949
  },
  { "fall" : "Fell",
    "id" : 427,
    "mass" : 1800,
    "name" : "Akbarpur",
    "nametype" : "Valid",
    "recclass" : "H4",
    "reclat" : 29.716670000000001,
    "reclong" : 77.950000000000003,
    "year" : 1838
  },
  { "fall" : "Fell",
    "id" : 432,
    "mass" : 3000,
    "name" : "Akwanga",
    "nametype" : "Valid",
    "recclass" : "H",
    "reclat" : 8.9166699999999999,
    "reclong" : 8.4333299999999998,
    "year" : 1959
  },
  { "fall" : "Fell",
    "id" : 433,
    "mass" : 50000,
    "name" : "Akyumak",
    "nametype" : "Valid",
    "recclass" : "Iron, IVA",
    "reclat" : 39.916670000000003,
    "reclong" : 42.816670000000002,
    "year" : 1981
  },
  { "fall" : "Fell",
    "id" : 446,
    "mass" : 160,
    "name" : "Al Rais",
    "nametype" : "Valid",
    "recclass" : "CR2-an",
    "reclat" : 24.41667,
    "reclong" : 39.516669999999998,
    "year" : 1957
  },
  { "fall" : "Fell",
    "id" : 447,
    "mass" : 700,
    "name" : "Al Zarnkh",
    "nametype" : "Valid",
    "recclass" : "LL5",
    "reclat" : 13.66033,
    "reclong" : 28.960000000000001,
    "year" : 2001
  },
  { "fall" : "Fell",
    "id" : 448,
    "mass" : 6000,
    "name" : "Alais",
    "nametype" : "Valid",
    "recclass" : "CI1",
    "reclat" : 44.116669999999999,
    "reclong" : 4.0833300000000001,
    "year" : 1806
  },
  { "fall" : "Fell",
    "id" : 453,
    "mass" : 2000,
    "name" : "Albareto",
    "nametype" : "Valid",
    "recclass" : "L/LL4",
    "reclat" : 44.649999999999999,
    "reclong" : 11.01667,
    "year" : 1766
  },
  { "fall" : "Fell",
    "id" : 454,
    "mass" : 625,
    "name" : "Alberta",
    "nametype" : "Valid",
    "recclass" : "L",
    "reclat" : 2.0,
    "reclong" : 22.66667,
    "year" : 1949
  },
  { "fall" : "Fell",
    "id" : 458,
    "mass" : 252,
    "name" : "Alby sur Chéran",
    "nametype" : "Valid",
    "recclass" : "Eucrite-mmict",
    "reclat" : 45.821330000000003,
    "reclong" : 6.0153299999999996,
    "year" : 2002
  },
  { "fall" : "Fell",
    "id" : 461,
    "mass" : 700,
    "name" : "Aldsworth",
    "nametype" : "Valid",
    "recclass" : "LL5",
    "reclat" : 51.783329999999999,
    "reclong" : -1.7833300000000001,
    "year" : 1835
  },
  { "fall" : "Fell",
    "id" : 462,
    "mass" : 3200,
    "name" : "Aleppo",
    "nametype" : "Valid",
    "recclass" : "L6",
    "reclat" : 36.233330000000002,
    "reclong" : 37.133330000000001,
    "year" : 1873
  },
  { "fall" : "Fell",
    "id" : 463,
    "mass" : 908,
    "name" : "Alessandria",
    "nametype" : "Valid",
    "recclass" : "H5",
    "reclat" : 44.883330000000001,
    "reclong" : 8.75,
    "year" : 1860
  },
  { "fall" : "Fell",
    "id" : 465,
    "mass" : 9251,
    "name" : "Alexandrovsky",
    "nametype" : "Valid",
    "recclass" : "H4",
    "reclat" : 50.950000000000003,
    "reclong" : 31.816669999999998,
    "year" : 1900
  },
  { "fall" : "Fell",
    "id" : 466,
    "mass" : 228000,
    "name" : "Alfianello",
    "nametype" : "Valid",
    "recclass" : "L6",
    "reclat" : 45.266669999999998,
    "reclong" : 10.15,
    "year" : 1883
  },
  { "fall" : "Fell",
    "id" : 2276,
    "mass" : 32000,
    "name" : "Allegan",
    "nametype" : "Valid",
    "recclass" : "H5",
    "reclat" : 42.533329999999999,
    "reclong" : -85.883330000000001,
    "year" : 1899
  },
  { "fall" : "Fell",
    "id" : 2278,
    "mass" : 2000000,
    "name" : "Allende",
    "nametype" : "Valid",
    "recclass" : "CV3",
    "reclat" : 26.966670000000001,
    "reclong" : -105.31667,
    "year" : 1969
  },
  { "fall" : "Fell",
    "id" : 48915,
    "mass" : 3950,
    "name" : "Almahata Sitta",
    "nametype" : "Valid",
    "recclass" : "Ureilite-an",
    "reclat" : 20.745750000000001,
    "reclong" : 32.412750000000003,
    "year" : 2008
  },
  { "fall" : "Fell",
    "id" : 2284,
    "mass" : 6000,
    "name" : "Alta'ameem",
    "nametype" : "Valid",
    "recclass" : "LL5",
    "reclat" : 35.273330000000001,
    "reclong" : 44.215560000000004,
    "year" : 1977
  },
  { "fall" : "Fell",
    "id" : 2290,
    "mass" : 6400,
    "name" : "Ambapur Nagla",
    "nametype" : "Valid",
    "recclass" : "H5",
    "reclat" : 27.66667,
    "reclong" : 78.25,
    "year" : 1895
  },
  { "fall" : "Fell",
    "id" : 2294,
    "mass" : 2700,
    "name" : "Andhara",
    "nametype" : "Valid",
    "recclass" : "Stone-uncl",
    "reclat" : 26.58333,
    "reclong" : 85.566670000000002,
    "year" : 1880
  },
  { "fall" : "Fell",
    "id" : 2295,
    "mass" : 3200,
    "name" : "Andover",
    "nametype" : "Valid",
    "recclass" : "L6",
    "reclat" : 44.616669999999999,
    "reclong" : -70.75,
    "year" : 1898
  },
  { "fall" : "Fell",
    "id" : 2296,
    "mass" : 600,
    "name" : "Andreevka",
    "nametype" : "Valid",
    "recclass" : "L3",
    "reclat" : 48.700000000000003,
    "reclong" : 37.5,
    "year" : 1969
  },
  { "fall" : "Fell",
    "id" : 2298,
    "mass" : 17900,
    "name" : "Andura",
    "nametype" : "Valid",
    "recclass" : "H6",
    "reclat" : 20.883330000000001,
    "reclong" : 76.866669999999999,
    "year" : 1939
  },
  { "fall" : "Fell",
    "id" : 2301,
    "mass" : null,
    "name" : "Angers",
    "nametype" : "Valid",
    "recclass" : "L6",
    "reclat" : 47.466670000000001,
    "reclong" : -0.55000000000000004,
    "year" : 1822
  },
  { "fall" : "Fell",
    "id" : 2302,
    "mass" : 1500,
    "name" : "Angra dos Reis (stone)",
    "nametype" : "Valid",
    "recclass" : "Angrite",
    "reclat" : -22.966670000000001,
    "reclong" : -44.316670000000002,
    "year" : 1869
  },
  { "fall" : "Fell",
    "id" : 2304,
    "mass" : 6500,
    "name" : "Ankober",
    "nametype" : "Valid",
    "recclass" : "H4",
    "reclat" : 9.5333299999999994,
    "reclong" : 39.716670000000001,
    "year" : 1942
  },
  { "fall" : "Fell",
    "id" : 2305,
    "mass" : 2500,
    "name" : "Anlong",
    "nametype" : "Valid",
    "recclass" : "H5",
    "reclat" : 25.149999999999999,
    "reclong" : 105.18333,
    "year" : 1971
  },
  { "fall" : "Fell",
    "id" : 2313,
    "mass" : 320,
    "name" : "Aomori",
    "nametype" : "Valid",
    "recclass" : "L6",
    "reclat" : 40.810560000000002,
    "reclong" : 140.78556,
    "year" : 1984
  },
  { "fall" : "Fell",
    "id" : 2318,
    "mass" : 15000,
    "name" : "Appley Bridge",
    "nametype" : "Valid",
    "recclass" : "LL6",
    "reclat" : 53.583329999999997,
    "reclong" : -2.7166700000000001,
    "year" : 1914
  },
  { "fall" : "Fell",
    "id" : 2320,
    "mass" : 3200,
    "name" : "Apt",
    "nametype" : "Valid",
    "recclass" : "L6",
    "reclat" : 43.866669999999999,
    "reclong" : 5.3833299999999999,
    "year" : 1803
  },
  { "fall" : "Fell",
    "id" : 2325,
    "mass" : 810,
    "name" : "Arbol Solo",
    "nametype" : "Valid",
    "recclass" : "H5",
    "reclat" : -33.0,
    "reclong" : -66.0,
    "year" : 1954
  },
  { "fall" : "Fell",
    "id" : 2329,
    "mass" : 5070,
    "name" : "Archie",
    "nametype" : "Valid",
    "recclass" : "H6",
    "reclat" : 38.5,
    "reclong" : -94.299999999999997,
    "year" : 1932
  },
  { "fall" : "Fell",
    "id" : 2340,
    "mass" : 7450,
    "name" : "Arroyo Aguiar",
    "nametype" : "Valid",
    "recclass" : "H5",
    "reclat" : -31.41667,
    "reclong" : -60.666670000000003,
    "year" : 1950
  },
  { "fall" : "Fell",
    "id" : 2345,
    "mass" : 41,
    "name" : "Asco",
    "nametype" : "Valid",
    "recclass" : "H6",
    "reclat" : 42.450000000000003,
    "reclong" : 9.0333299999999994,
    "year" : 1805
  },
  { "fall" : "Fell",
    "id" : 48954,
    "mass" : 9500,
    "name" : "Ash Creek",
    "nametype" : "Valid",
    "recclass" : "L6",
    "reclat" : 31.805,
    "reclong" : -97.010000000000005,
    "year" : 2009
  },
  { "fall" : "Fell",
    "id" : 2346,
    "mass" : 1300,
    "name" : "Ashdon",
    "nametype" : "Valid",
    "recclass" : "L6",
    "reclat" : 52.049999999999997,
    "reclong" : 0.29999999999999999,
    "year" : 1923
  },
  { "fall" : "Fell",
    "id" : 2353,
    "mass" : 2000,
    "name" : "Assisi",
    "nametype" : "Valid",
    "recclass" : "H5",
    "reclat" : 43.033329999999999,
    "reclong" : 12.550000000000001,
    "year" : 1886
  },
  { "fall" : "Fell",
    "id" : 4883,
    "mass" : 1280,
    "name" : "Atarra",
    "nametype" : "Valid",
    "recclass" : "L4",
    "reclat" : 25.254169999999998,
    "reclong" : 80.625,
    "year" : 1920
  },
  { "fall" : "Fell",
    "id" : 4884,
    "mass" : 94.200000000000003,
    "name" : "Atemajac",
    "nametype" : "Valid",
    "recclass" : "L6",
    "reclat" : 20.066669999999998,
    "reclong" : -103.66667,
    "year" : 1896
  },
  { "fall" : "Fell",
    "id" : 4885,
    "mass" : 265,
    "name" : "Athens",
    "nametype" : "Valid",
    "recclass" : "LL6",
    "reclat" : 34.75,
    "reclong" : -87.0,
    "year" : 1933
  },
  { "fall" : "Fell",
    "id" : 4888,
    "mass" : 1384.2,
    "name" : "Atoka",
    "nametype" : "Valid",
    "recclass" : "L6",
    "reclat" : 34.316670000000002,
    "reclong" : -96.150000000000006,
    "year" : 1945
  },
  { "fall" : "Fell",
    "id" : 4893,
    "mass" : 800,
    "name" : "Aubres",
    "nametype" : "Valid",
    "recclass" : "Aubrite",
    "reclat" : 44.383330000000001,
    "reclong" : 5.1666699999999999,
    "year" : 1836
  },
  { "fall" : "Fell",
    "id" : 4899,
    "mass" : 50000,
    "name" : "Aumale",
    "nametype" : "Valid",
    "recclass" : "L6",
    "reclat" : 36.166670000000003,
    "reclong" : 3.6666699999999999,
    "year" : 1865
  },
  { "fall" : "Fell",
    "id" : 4900,
    "mass" : 2000,
    "name" : "Aumieres",
    "nametype" : "Valid",
    "recclass" : "L6",
    "reclat" : 44.333329999999997,
    "reclong" : 3.23333,
    "year" : 1842
  },
  { "fall" : "Fell",
    "id" : 4903,
    "mass" : 50000,
    "name" : "Ausson",
    "nametype" : "Valid",
    "recclass" : "L5",
    "reclat" : 43.083329999999997,
    "reclong" : 0.58333000000000002,
    "year" : 1858
  },
  { "fall" : "Fell",
    "id" : 4905,
    "mass" : 9330,
    "name" : "Avanhandava",
    "nametype" : "Valid",
    "recclass" : "H4",
    "reclat" : -21.460280000000001,
    "reclong" : -49.950830000000003,
    "year" : 1952
  },
  { "fall" : "Fell",
    "id" : 4906,
    "mass" : 1230,
    "name" : "Avce",
    "nametype" : "Valid",
    "recclass" : "Iron, IIAB",
    "reclat" : 46.0,
    "reclong" : 13.5,
    "year" : 1908
  },
  { "fall" : "Fell",
    "id" : 4907,
    "mass" : 146,
    "name" : "Avilez",
    "nametype" : "Valid",
    "recclass" : "H",
    "reclat" : 25.0,
    "reclong" : -103.5,
    "year" : 1855
  },
  { "fall" : "Fell",
    "id" : 4910,
    "mass" : 134,
    "name" : "Awere",
    "nametype" : "Valid",
    "recclass" : "L4",
    "reclat" : 2.7166700000000001,
    "reclong" : 32.833329999999997,
    "year" : 1968
  },
  { "fall" : "Fell",
    "id" : 4913,
    "mass" : 2830,
    "name" : "Aztec",
    "nametype" : "Valid",
    "recclass" : "L6",
    "reclat" : 36.799999999999997,
    "reclong" : -108.0,
    "year" : 1938
  },
  { "fall" : "Fell",
    "id" : 4917,
    "mass" : 18000,
    "name" : "Bachmut",
    "nametype" : "Valid",
    "recclass" : "L6",
    "reclat" : 48.600000000000001,
    "reclong" : 38.0,
    "year" : 1814
  },
  { "fall" : "Fell",
    "id" : 4922,
    "mass" : 10322,
    "name" : "Bahjoi",
    "nametype" : "Valid",
    "recclass" : "Iron, IAB-sLL",
    "reclat" : 28.483329999999999,
    "reclong" : 78.5,
    "year" : 1934
  },
  { "fall" : "Fell",
    "id" : 4925,
    "mass" : 3700,
    "name" : "Bald Mountain",
    "nametype" : "Valid",
    "recclass" : "L4",
    "reclat" : 35.966670000000001,
    "reclong" : -82.483329999999995,
    "year" : 1929
  },
  { "fall" : "Fell",
    "id" : 4926,
    "mass" : 345,
    "name" : "Baldwyn",
    "nametype" : "Valid",
    "recclass" : "L6",
    "reclat" : 34.5,
    "reclong" : -88.666669999999996,
    "year" : 1922
  },
  { "fall" : "Fell",
    "id" : 4928,
    "mass" : 1000,
    "name" : "Bali",
    "nametype" : "Valid",
    "recclass" : "CV3",
    "reclat" : 5.3833299999999999,
    "reclong" : 16.383330000000001,
    "year" : 1907
  },
  { "fall" : "Fell",
    "id" : 4934,
    "mass" : 16700,
    "name" : "Ban Rong Du",
    "nametype" : "Valid",
    "recclass" : "Iron, ungrouped",
    "reclat" : 16.66667,
    "reclong" : 101.18333,
    "year" : 1993
  },
  { "fall" : "Fell",
    "id" : 4935,
    "mass" : 11500,
    "name" : "Bandong",
    "nametype" : "Valid",
    "recclass" : "LL6",
    "reclat" : -6.9166699999999999,
    "reclong" : 107.59999999999999,
    "year" : 1871
  },
  { "fall" : "Fell",
    "id" : 4936,
    "mass" : 15000,
    "name" : "Bansur",
    "nametype" : "Valid",
    "recclass" : "L6",
    "reclat" : 27.699999999999999,
    "reclong" : 76.333330000000004,
    "year" : 1892
  },
  { "fall" : "Fell",
    "id" : 4937,
    "mass" : 14,
    "name" : "Banswal",
    "nametype" : "Valid",
    "recclass" : "L5",
    "reclat" : 30.399999999999999,
    "reclong" : 78.200000000000003,
    "year" : 1913
  },
  { "fall" : "Fell",
    "id" : 4938,
    "mass" : 629,
    "name" : "Banten",
    "nametype" : "Valid",
    "recclass" : "CM2",
    "reclat" : -6.3333300000000001,
    "reclong" : 106.0,
    "year" : 1933
  },
  { "fall" : "Fell",
    "id" : 4942,
    "mass" : 6400,
    "name" : "Barbotan",
    "nametype" : "Valid",
    "recclass" : "H5",
    "reclat" : 43.950000000000003,
    "reclong" : -0.050000000000000003,
    "year" : 1790
  },
  { "fall" : "Fell",
    "id" : 4944,
    "mass" : null,
    "name" : "Barcelona (stone)",
    "nametype" : "Valid",
    "recclass" : "OC",
    "reclat" : 41.366669999999999,
    "reclong" : 2.1666699999999999,
    "year" : 1704
  },
  { "fall" : "Fell",
    "id" : 4946,
    "mass" : 3200,
    "name" : "Barea",
    "nametype" : "Valid",
    "recclass" : "Mesosiderite-A1",
    "reclat" : 42.383330000000001,
    "reclong" : -2.5,
    "year" : 1842
  },
  { "fall" : "Fell",
    "id" : 4947,
    "mass" : 23.199999999999999,
    "name" : "Barnaul",
    "nametype" : "Valid",
    "recclass" : "H5",
    "reclat" : 52.733330000000002,
    "reclong" : 84.083330000000004,
    "year" : 1904
  },
  { "fall" : "Fell",
    "id" : 4948,
    "mass" : 17,
    "name" : "Barntrup",
    "nametype" : "Valid",
    "recclass" : "LL4",
    "reclat" : 52.0,
    "reclong" : 9.0999999999999996,
    "year" : 1886
  },
  { "fall" : "Fell",
    "id" : 4949,
    "mass" : 4500,
    "name" : "Baroti",
    "nametype" : "Valid",
    "recclass" : "L6",
    "reclat" : 31.616669999999999,
    "reclong" : 76.799999999999997,
    "year" : 1910
  },
  { "fall" : "Fell",
    "id" : 4954,
    "mass" : 44000,
    "name" : "Barwell",
    "nametype" : "Valid",
    "recclass" : "L5",
    "reclat" : 52.565280000000001,
    "reclong" : -1.33972,
    "year" : 1965
  },
  { "fall" : "Fell",
    "id" : 44876,
    "mass" : 29560,
    "name" : "Bassikounou",
    "nametype" : "Valid",
    "recclass" : "H5",
    "reclat" : 15.783329999999999,
    "reclong" : -5.9000000000000004,
    "year" : 2006
  },
  { "fall" : "Fell",
    "id" : 4957,
    "mass" : 15500,
    "name" : "Baszkówka",
    "nametype" : "Valid",
    "recclass" : "L5",
    "reclat" : 52.033329999999999,
    "reclong" : 20.935829999999999,
    "year" : 1994
  },
  { "fall" : "Fell",
    "id" : 4974,
    "mass" : 21000,
    "name" : "Bath",
    "nametype" : "Valid",
    "recclass" : "H4",
    "reclat" : 45.416670000000003,
    "reclong" : -98.316670000000002,
    "year" : 1892
  },
  { "fall" : "Fell",
    "id" : 4975,
    "mass" : 86000,
    "name" : "Bath Furnace",
    "nametype" : "Valid",
    "recclass" : "L6",
    "reclat" : 38.25,
    "reclong" : -83.75,
    "year" : 1902
  },
  { "fall" : "Fell",
    "id" : 56133,
    "mass" : 2900,
    "name" : "Battle Mountain",
    "nametype" : "Valid",
    "recclass" : "L6",
    "reclat" : 40.668129999999998,
    "reclong" : -117.18913000000001,
    "year" : 2012
  },
  { "fall" : "Fell",
    "id" : 4976,
    "mass" : 1557,
    "name" : "Bawku",
    "nametype" : "Valid",
    "recclass" : "LL5",
    "reclat" : 11.08333,
    "reclong" : -0.18332999999999999,
    "year" : 1989
  },
  { "fall" : "Fell",
    "id" : 4977,
    "mass" : 611,
    "name" : "Baxter",
    "nametype" : "Valid",
    "recclass" : "L6",
    "reclat" : 36.75,
    "reclong" : -93.5,
    "year" : 1916
  },
  { "fall" : "Fell",
    "id" : 4984,
    "mass" : 16000,
    "name" : "Beardsley",
    "nametype" : "Valid",
    "recclass" : "H5",
    "reclat" : 39.799999999999997,
    "reclong" : -101.2,
    "year" : 1929
  },
  { "fall" : "Fell",
    "id" : 4986,
    "mass" : 14000,
    "name" : "Beaver Creek",
    "nametype" : "Valid",
    "recclass" : "H5",
    "reclat" : 51.166670000000003,
    "reclong" : -117.33333,
    "year" : 1893
  },
  { "fall" : "Fell",
    "id" : 4993,
    "mass" : 794,
    "name" : "Beddgelert",
    "nametype" : "Valid",
    "recclass" : "H5",
    "reclat" : 53.016669999999998,
    "reclong" : -4.0999999999999996,
    "year" : 1949
  },
  { "fall" : "Fell",
    "id" : 5005,
    "mass" : 375,
    "name" : "Bells",
    "nametype" : "Valid",
    "recclass" : "C2-ung",
    "reclat" : 33.600000000000001,
    "reclong" : -96.466669999999993,
    "year" : 1961
  },
  { "fall" : "Fell",
    "id" : 5009,
    "mass" : null,
    "name" : "Belville",
    "nametype" : "Valid",
    "recclass" : "OC",
    "reclat" : -32.333329999999997,
    "reclong" : -64.866669999999999,
    "year" : 1937
  },
  { "fall" : "Fell",
    "id" : 5011,
    "mass" : 3700,
    "name" : "Benares (a)",
    "nametype" : "Valid",
    "recclass" : "LL4",
    "reclat" : 25.366669999999999,
    "reclong" : 82.916669999999996,
    "year" : 1798
  },
  { "fall" : "Fell",
    "id" : 30443,
    "mass" : 25000,
    "name" : "Benguerir",
    "nametype" : "Valid",
    "recclass" : "LL6",
    "reclat" : 32.25,
    "reclong" : -8.1500000000000004,
    "year" : 2004
  },
  { "fall" : "Fell",
    "id" : 5018,
    "mass" : 19000,
    "name" : "Beni M'hira",
    "nametype" : "Valid",
    "recclass" : "L6",
    "reclat" : 32.866669999999999,
    "reclong" : 10.800000000000001,
    "year" : 2001
  },
  { "fall" : "Fell",
    "id" : 5021,
    "mass" : 1770.5,
    "name" : "Benld",
    "nametype" : "Valid",
    "recclass" : "H6",
    "reclat" : 39.083329999999997,
    "reclong" : -89.150000000000006,
    "year" : 1938
  },
  { "fall" : "Fell",
    "id" : 5023,
    "mass" : 3880,
    "name" : "Benoni",
    "nametype" : "Valid",
    "recclass" : "H6",
    "reclat" : -26.16667,
    "reclong" : 28.41667,
    "year" : 1943
  },
  { "fall" : "Fell",
    "id" : 5024,
    "mass" : 45000,
    "name" : "Bensour",
    "nametype" : "Valid",
    "recclass" : "LL6",
    "reclat" : 30.0,
    "reclong" : -7.0,
    "year" : 2002
  },
  { "fall" : "Fell",
    "id" : 5026,
    "mass" : 2840,
    "name" : "Benton",
    "nametype" : "Valid",
    "recclass" : "LL6",
    "reclat" : 45.950000000000003,
    "reclong" : -67.549999999999997,
    "year" : 1949
  }
]